^C:\DOCUMENTS AND SETTINGS\NOTEBOOK\ESCRITORIO\TDC2012\BULONERIA DESARROLLO\BULONERIA DESARROLLO\DESARROLLO\BULONERIA\VISTA\AUDITORIA\FORMAUDITORIALOGS.RESX
^C:\DOCUMENTS AND SETTINGS\NOTEBOOK\ESCRITORIO\TDC2012\BULONERIA DESARROLLO\BULONERIA DESARROLLO\DESARROLLO\BULONERIA\VISTA\FORMAARTICULO.RESX
^C:\DOCUMENTS AND SETTINGS\NOTEBOOK\ESCRITORIO\TDC2012\BULONERIA DESARROLLO\BULONERIA DESARROLLO\DESARROLLO\BULONERIA\VISTA\FORMAARTICULOIM.RESX
^C:\DOCUMENTS AND SETTINGS\NOTEBOOK\ESCRITORIO\TDC2012\BULONERIA DESARROLLO\BULONERIA DESARROLLO\DESARROLLO\BULONERIA\VISTA\FORMAARTICULONP.RESX
^C:\DOCUMENTS AND SETTINGS\NOTEBOOK\ESCRITORIO\TDC2012\BULONERIA DESARROLLO\BULONERIA DESARROLLO\DESARROLLO\BULONERIA\VISTA\FORMAARTICULOOC.RESX
^C:\DOCUMENTS AND SETTINGS\NOTEBOOK\ESCRITORIO\TDC2012\BULONERIA DESARROLLO\BULONERIA DESARROLLO\DESARROLLO\BULONERIA\VISTA\FORMACONCEPTO.RESX
^C:\DOCUMENTS AND SETTINGS\NOTEBOOK\ESCRITORIO\TDC2012\BULONERIA DESARROLLO\BULONERIA DESARROLLO\DESARROLLO\BULONERIA\VISTA\FORMAGRUPOARTICULO.RESX
^C:\DOCUMENTS AND SETTINGS\NOTEBOOK\ESCRITORIO\TDC2012\BULONERIA DESARROLLO\BULONERIA DESARROLLO\DESARROLLO\BULONERIA\VISTA\FORMAPROVEEDOR.RESX
^C:\DOCUMENTS AND SETTINGS\NOTEBOOK\ESCRITORIO\TDC2012\BULONERIA DESARROLLO\BULONERIA DESARROLLO\DESARROLLO\BULONERIA\VISTA\FORMCONSULTARNP.RESX
^C:\DOCUMENTS AND SETTINGS\NOTEBOOK\ESCRITORIO\TDC2012\BULONERIA DESARROLLO\BULONERIA DESARROLLO\DESARROLLO\BULONERIA\VISTA\FORMCONSULTAROC.RESX
^C:\DOCUMENTS AND SETTINGS\NOTEBOOK\ESCRITORIO\TDC2012\BULONERIA DESARROLLO\BULONERIA DESARROLLO\DESARROLLO\BULONERIA\VISTA\FORMELIMINARNP.RESX
^C:\DOCUMENTS AND SETTINGS\NOTEBOOK\ESCRITORIO\TDC2012\BULONERIA DESARROLLO\BULONERIA DESARROLLO\DESARROLLO\BULONERIA\VISTA\FORMGARTICULOS.RESX
^C:\DOCUMENTS AND SETTINGS\NOTEBOOK\ESCRITORIO\TDC2012\BULONERIA DESARROLLO\BULONERIA DESARROLLO\DESARROLLO\BULONERIA\VISTA\FORMGCLIENTES.RESX
^C:\DOCUMENTS AND SETTINGS\NOTEBOOK\ESCRITORIO\TDC2012\BULONERIA DESARROLLO\BULONERIA DESARROLLO\DESARROLLO\BULONERIA\VISTA\FORMGCONCEPTOS.RESX
^C:\DOCUMENTS AND SETTINGS\NOTEBOOK\ESCRITORIO\TDC2012\BULONERIA DESARROLLO\BULONERIA DESARROLLO\DESARROLLO\BULONERIA\VISTA\FORMGENERARNP.RESX
^C:\DOCUMENTS AND SETTINGS\NOTEBOOK\ESCRITORIO\TDC2012\BULONERIA DESARROLLO\BULONERIA DESARROLLO\DESARROLLO\BULONERIA\VISTA\FORMGENERAROC.RESX
^C:\DOCUMENTS AND SETTINGS\NOTEBOOK\ESCRITORIO\TDC2012\BULONERIA DESARROLLO\BULONERIA DESARROLLO\DESARROLLO\BULONERIA\VISTA\FORMGESTIONARNP.RESX
^C:\DOCUMENTS AND SETTINGS\NOTEBOOK\ESCRITORIO\TDC2012\BULONERIA DESARROLLO\BULONERIA DESARROLLO\DESARROLLO\BULONERIA\VISTA\FORMGESTIONAROC.RESX
^C:\DOCUMENTS AND SETTINGS\NOTEBOOK\ESCRITORIO\TDC2012\BULONERIA DESARROLLO\BULONERIA DESARROLLO\DESARROLLO\BULONERIA\VISTA\FORMGGRUPOSARTICULOS.RESX
^C:\DOCUMENTS AND SETTINGS\NOTEBOOK\ESCRITORIO\TDC2012\BULONERIA DESARROLLO\BULONERIA DESARROLLO\DESARROLLO\BULONERIA\VISTA\FORMGPROVEEDORES.RESX
^C:\DOCUMENTS AND SETTINGS\NOTEBOOK\ESCRITORIO\TDC2012\BULONERIA DESARROLLO\BULONERIA DESARROLLO\DESARROLLO\BULONERIA\VISTA\FORMIMERCADERIA.RESX
^C:\DOCUMENTS AND SETTINGS\NOTEBOOK\ESCRITORIO\TDC2012\BULONERIA DESARROLLO\BULONERIA DESARROLLO\DESARROLLO\BULONERIA\VISTA\FORMMPROVEEDOR.RESX
^C:\DOCUMENTS AND SETTINGS\NOTEBOOK\ESCRITORIO\TDC2012\BULONERIA DESARROLLO\BULONERIA DESARROLLO\DESARROLLO\BULONERIA\VISTA\FORMCPROVEEDOR.RESX
^C:\DOCUMENTS AND SETTINGS\NOTEBOOK\ESCRITORIO\TDC2012\BULONERIA DESARROLLO\BULONERIA DESARROLLO\DESARROLLO\BULONERIA\VISTA\FORMEPROVEEDOR.RESX
^C:\DOCUMENTS AND SETTINGS\NOTEBOOK\ESCRITORIO\TDC2012\BULONERIA DESARROLLO\BULONERIA DESARROLLO\DESARROLLO\BULONERIA\VISTA\FORMACLIENTE.RESX
^C:\DOCUMENTS AND SETTINGS\NOTEBOOK\ESCRITORIO\TDC2012\BULONERIA DESARROLLO\BULONERIA DESARROLLO\DESARROLLO\BULONERIA\VISTA\FORMMCLIENTE.RESX
^C:\DOCUMENTS AND SETTINGS\NOTEBOOK\ESCRITORIO\TDC2012\BULONERIA DESARROLLO\BULONERIA DESARROLLO\DESARROLLO\BULONERIA\VISTA\FORMCCLIENTE.RESX
^C:\DOCUMENTS AND SETTINGS\NOTEBOOK\ESCRITORIO\TDC2012\BULONERIA DESARROLLO\BULONERIA DESARROLLO\DESARROLLO\BULONERIA\VISTA\FORMECLIENTE.RESX
^C:\DOCUMENTS AND SETTINGS\NOTEBOOK\ESCRITORIO\TDC2012\BULONERIA DESARROLLO\BULONERIA DESARROLLO\DESARROLLO\BULONERIA\VISTA\FORMREGISTRARPAGOCLIENTE.RESX
^C:\DOCUMENTS AND SETTINGS\NOTEBOOK\ESCRITORIO\TDC2012\BULONERIA DESARROLLO\BULONERIA DESARROLLO\DESARROLLO\BULONERIA\VISTA\FORMVCTACTECLIENTE.RESX
^C:\DOCUMENTS AND SETTINGS\NOTEBOOK\ESCRITORIO\TDC2012\BULONERIA DESARROLLO\BULONERIA DESARROLLO\DESARROLLO\BULONERIA\VISTA\FORMVISUALIZARMERCFALTANTE.RESX
^C:\DOCUMENTS AND SETTINGS\NOTEBOOK\ESCRITORIO\TDC2012\BULONERIA DESARROLLO\BULONERIA DESARROLLO\DESARROLLO\BULONERIA\VISTA\PROPERTIES\RESOURCES.RESX
C:\DOCUMENTS AND SETTINGS\NOTEBOOK\ESCRITORIO\TDC2012\BULONERIA DESARROLLO\BULONERIA DESARROLLO\DESARROLLO\BULONERIA\VISTA\RESOURCES\BULON%20CABEZA%20REDONDA.JPG
^C:\DOCUMENTS AND SETTINGS\NOTEBOOK\ESCRITORIO\TDC2012\BULONERIA DESARROLLO\BULONERIA DESARROLLO\DESARROLLO\BULONERIA\VISTA\REPORTES\FORMREPORTES.RESX
^C:\DOCUMENTS AND SETTINGS\NOTEBOOK\ESCRITORIO\TDC2012\BULONERIA DESARROLLO\BULONERIA DESARROLLO\DESARROLLO\BULONERIA\VISTA\SEGURIDAD\FORMCAMBIARCONTRASEñA.RESX
^C:\DOCUMENTS AND SETTINGS\NOTEBOOK\ESCRITORIO\TDC2012\BULONERIA DESARROLLO\BULONERIA DESARROLLO\DESARROLLO\BULONERIA\VISTA\SEGURIDAD\FORMCONFIGURARMAIL.RESX
^C:\DOCUMENTS AND SETTINGS\NOTEBOOK\ESCRITORIO\TDC2012\BULONERIA DESARROLLO\BULONERIA DESARROLLO\DESARROLLO\BULONERIA\VISTA\SEGURIDAD\FORMGRUPO.RESX
^C:\DOCUMENTS AND SETTINGS\NOTEBOOK\ESCRITORIO\TDC2012\BULONERIA DESARROLLO\BULONERIA DESARROLLO\DESARROLLO\BULONERIA\VISTA\SEGURIDAD\FORMLOGIN.RESX
^C:\DOCUMENTS AND SETTINGS\NOTEBOOK\ESCRITORIO\TDC2012\BULONERIA DESARROLLO\BULONERIA DESARROLLO\DESARROLLO\BULONERIA\VISTA\SEGURIDAD\FORMSEGURIDAD.RESX
^C:\DOCUMENTS AND SETTINGS\NOTEBOOK\ESCRITORIO\TDC2012\BULONERIA DESARROLLO\BULONERIA DESARROLLO\DESARROLLO\BULONERIA\VISTA\SEGURIDAD\FORMUSUARIO.RESX
^C:\DOCUMENTS AND SETTINGS\NOTEBOOK\ESCRITORIO\TDC2012\BULONERIA DESARROLLO\BULONERIA DESARROLLO\DESARROLLO\BULONERIA\VISTA\BACKUPRESTORE\FRMBACKUPRESTORE.RESX
C:\WINDOWS\ASSEMBLY\PUBPOL13.DAT
C:\WINDOWS\MICROSOFT.NET\ASSEMBLY\GAC_MSIL\MICROSOFT.BUILD.TASKS.V4.0\V4.0_4.0.0.0__B03F5F7F11D50A3A\MICROSOFT.BUILD.TASKS.V4.0.DLL
^C:\DOCUMENTS AND SETTINGS\NOTEBOOK\ESCRITORIO\TDC2012\BULONERIA DESARROLLO\BULONERIA DESARROLLO\DESARROLLO\BULONERIA\VISTA\FORMMENU.RESX
^C:\DOCUMENTS AND SETTINGS\NOTEBOOK\ESCRITORIO\TDC2012\BULONERIA DESARROLLO\BULONERIA DESARROLLO\DESARROLLO\BULONERIA\VISTA\FORMINFGCIAL.RESX
^C:\DOCUMENTS AND SETTINGS\NOTEBOOK\ESCRITORIO\TDC2012\BULONERIA DESARROLLO\BULONERIA DESARROLLO\DESARROLLO\BULONERIA\VISTA\FORMINFORMACIONGERENCIAL.RESX
^C:\DOCUMENTS AND SETTINGS\NOTEBOOK\ESCRITORIO\TDC2012\BULONERIA DESARROLLO\BULONERIA DESARROLLO\DESARROLLO\BULONERIA\VISTA\FORMREPORTECOMPPREART.RESX
^C:\DOCUMENTS AND SETTINGS\NOTEBOOK\ESCRITORIO\TDC2012\BULONERIA DESARROLLO\BULONERIA DESARROLLO\DESARROLLO\BULONERIA\VISTA\FORMREPORTEARTMASVENDIDOS.RESX
^C:\DOCUMENTS AND SETTINGS\NOTEBOOK\ESCRITORIO\TDC2012\BULONERIA DESARROLLO\BULONERIA DESARROLLO\DESARROLLO\BULONERIA\VISTA\FORMREPORTEFALTANTESTOCK.RESX
^C:\DOCUMENTS AND SETTINGS\NOTEBOOK\ESCRITORIO\TDC2012\BULONERIA DESARROLLO\BULONERIA DESARROLLO\DESARROLLO\BULONERIA\VISTA\FORMREPORTEMONTOCOMPRACLI.RESX
^C:\DOCUMENTS AND SETTINGS\NOTEBOOK\ESCRITORIO\TDC2012\BULONERIA DESARROLLO\BULONERIA DESARROLLO\DESARROLLO\BULONERIA\VISTA\FORMINFORMES.RESX
